…
``` r
accel_table = accel_data %>% 
  group_by(accel_data$day_id, accel_data$total_activity) %>% 
  summarize(
  )
```

    ## `summarise()` has grouped output by 'accel_data$day_id'. You can override using
    ## the `.groups` argument.

``` r
accel_table
```

    ## # A tibble: 35 × 2
    ## # Groups:   accel_data$day_id [35]
    ##    `accel_data$day_id` `accel_data$total_activity`
    ##                  <dbl>                       <dbl>
    ##  1                   1                     480542.
    ##  2                   2                      78760.
    ##  3                   3                     376253 
    ##  4                   4                     630800 
    ##  5                   5                     355860.
    ##  6                   6                     306992.
    ##  7                   7                     340061.
    ##  8                   8                     568838 
    ##  9                   9                     295430 
    ## 10                  10                     607153 
    ## # … with 25 more rows
…
